{
  "version": 8,
  "configurePresets": [
    {
      "name": "base",
      "hidden": true,
      "generator": "Ninja",
      "cacheVariables": {
        "CMAKE_TOOLCHAIN_FILE": "$env{VCPKG_ROOT}/scripts/buildsystems/vcpkg.cmake"
      }
    },
    {
      "name": "base-debug",
      "inherits": "base",
      "binaryDir": "${sourceDir}/build/debug",
      "cacheVariables": {
        "CMAKE_BUILD_TYPE": "Debug"
      }
    },
    {
      "name": "base-release",
      "inherits": "base",
      "binaryDir": "${sourceDir}/build/release",
      "cacheVariables": {
        "CMAKE_BUILD_TYPE": "Release"
      }
    },
    {
      "name": "feature-wasm",
      "hidden": true,
      "binaryDir": "${sourceDir}/build/wasm-debug",
      "cacheVariables": {
        "VCPKG_CHAINLOAD_TOOLCHAIN_FILE": "$env{EMSDK}/upstream/emscripten/cmake/Modules/Platform/Emscripten.cmake"
      }
    },
    {
      "name": "wasm-debug",
      "inherits": ["feature-wasm", "base-debug"]
    }
  ]
}